animal;product;calories;protein;reference_calories;reference_protein
chicken;eggs;1430.00;125.6;USDA-2015;USDA-2018
chicken;meat;2510.00;222.00;USDA-2015;USDA-2018
cattle;cheese;650.00;249.40;USDA-2015;USDA-2018
cattle;meat;1776.67;194.20;USDA-2015;USDA-2018
fish_molluscs;fish_molluscs;1200.00;205.30;USDA-2015;USDA-2018
game;meat;1590.00;222.50;USDA-2015 (boar and deer averaged);USDA-2018
goats;cheese;3640.00;215.80;USDA-2015;USDA-2018
goats;meat;1430.00;166.00;USDA-2015;Dahl and Hjort 1976 (p. 205)
goats;milk;690.00;33.00;NA;USDA-2018
pigs;meat;2496.67;168.80;USDA-2015;USDA-2018
sheep;cheese;2640.00;179.00;USDA-2015;USDA-2018
sheep;meat;2307.5;100.00;USDA-2015;Dahl and Hjort 1976 (p. 205)
sheep;milk;1080.00;55.00;USDA-2015;USDA-2018
