animal;type ;weight;meat_yiel_factor;meat_yield;calories;protein;references_weight;references_calories;references_protein
deer;red_deer;250;0.5;125;1160;229.6;Barker 1985;USDA 2018;USDA 2018
deer;roe_deer;23;0.5;11.5;1200;217.8;Stubbe 1979;USDA 2018;USDA 2018
wild_boar;wild_boar;175;0.5;87.5;1220;215.1;Boehm 1997;USDA 2018;USDA 2018
bird;pheasant;1.2;0.5;0.6;1350;235.7;Svensson et al. 1999;Von der Osten-Sack 2015;USDA 2018
bird;partridge;0.35;0.5;175;2220;224;Glutz von Blotzheim 1966;Von der Osten-Sack 2015;USDA 2018
bird;duck;2;0.5;1;2270;182.8;LfULG 2008;Von der Osten-Sack 2015;USDA 2018
bird;goose;1.75;0.5;875;3420;227.5;LfULG 2008;Von der Osten-Sack 2015;USDA 2018
fish;perch;0.45;0.5;225;910;153.1;Kottelat et al. 2007;USDA 2018;USDA 2018
fish;halibut;20;0.5;10;910;185.6;Robins et al. 1986;USDA 2018;USDA 2018
fish;atlantic_cod;40;0.5;20;820;178.1;Gilbert and Williams 2002;USDA 2018;USDA 2018
fish;pike;15;0.5;7.5;880;192.6;Muus 1968;USDA 2018;USDA 2018
