product;milk_per_indiv_and_year;unit_milk;colories;unit_calories;reference;protein;reference_protein;calory_req_day_individual
cow_milk;211.67;L;600;kcal_L;Souci_et_al.__(aus_der_Tabelle);35;Dahl and Hjort 1976 (p. 154);8006.745
sheep_milk;50;L;1080;kcal_L;Dahl_und_Hjort;55;USDA-2018;878.4
goat_milk;70;L;690;kcal_L;Dahl_und_Hjort;33;USDA-2018;661.8
