type;species;productivity;produc_units;calories;protein;planting;waste_loss;storage;protein_unit;calories_units;yield_units;reference_calories;reference_productivity;reference_protein;reference_planting_loss_storage
cereals;barley;770;kg/ha;3540;99.1;0.1;0.1;0.25;g/kg;kcal/kg;kg;USDA-2015;Garnsey 1992;USDA-2018;Hughes_et_al_2018
cereals;common_wheat;625;kg/ha;3320;74.9;0.1;0.1;0.25;g/kg;kcal/kg;kg;USDA-2015;Garnsey 1992;USDA-2018;Hughes_et_al_2018
cereals;emmer;725;kg/ha;3070;60;0.1;0.1;0.25;g/kg;kcal/kg;kg;Revedin et al. 2010;Garnsey 1992;USDA-2018;Hughes_et_al_2018
cereals;einkorn;700;kg/ha;3462;80;0.1;0.1;0.25;g/kg;kcal/kg;kg;Badel-aal et al. 1995;Garnsey 1992;USDA-2018;Hughes_et_al_2018
cereals;millet;600;kg/ha;3780;110.2;0.1;0.1;0.25;g/kg;kcal/kg;kg;USDA-2015;Arnon 1972;USDA-2018;Hughes_et_al_2018
cereals;neo_barley;697;kg/ha;3540;130;0.1;0.1;0.25;g/kg;kcal/kg;kg;USDA-2015;Meurers-Balke, J., 1980. Experimenteller Getreideanbau im Hambacher Forst, Gem. Elsdorf/Kreis Bergheim/Rheinland, Bonner Jahrbuecher 180, 305-344.;Ebersbach 2002, p. 112;Hughes_et_al_2018
cereals;neo_emmer;652;kg/ha;3070;200;0.1;0.1;0.25;g/kg;kcal/kg;kg;Badel-aal et al. 1995;Meurers-Balke, J., 1980. Experimenteller Getreideanbau im Hambacher Forst, Gem. Elsdorf/Kreis Bergheim/Rheinland, Bonner Jahrbuecher 180, 305-344.;Alternative Wheat Cereals as Food Grains: Einkorn, Emmer, Spelt, Kamut, and Triticale;Hughes_et_al_2018
cereals;neo_einkorn;160;kg/ha;3462;130;0.1;0.1;0.25;g/kg;kcal/kg;kg;Badel-aal et al. 1995;;Ebersbach 2002, p. 112;Hughes_et_al_2018
legumes;lentil;350;kg/ha;3520;247;0.1;0.1;0.25;g/kg;kcal/kg;kg;USDA-2015;FAO 2013;Gregg  1988, p.75;Hughes_et_al_2018
legumes;pea;600;kg/ha;810;242;0.1;0.1;0.25;g/kg;kcal/kg;kg;USDA-2015;FAO 2013;Gregg  1988, p.75;Hughes_et_al_2018
legumes;fava_bean;800;kg/ha;880;262.1;0.1;0.1;0.25;g/kg;kcal/kg;kg;USDA-2015;FAO 2013;USDA-2018;Hughes_et_al_2018
legumes;chickpea;580;kg/ha;1640;90;0.1;0.1;0.25;g/kg;kcal/kg;kg;USDA-2015;Barzegar et al. 2003;USDA-2018;Hughes_et_al_2018
arboriculture/gathered;apple;5143.5;kg/ha;520;2.6;0;0.2;0.2;g/kg;kcal/kg;kg;USDA-2015;Aggelopoulou e tal. 2009 (25kg/tree)/lowest number from Griesbach 2007 divided by 2;USDA-2018;Hughes_et_al_2018
arboriculture/gathered;apple_dried;5143.5;kg/ha;2710;9.3;0;0;0.2;g/kg;kcal/kg;kg;Souci et al. 2016: Die Zusammensetzung der Lebensmittel. 8. Auflage, Medpharm Verlag.;BiolFlor Datenbank, UFZ Halle Leipzig;USDA-2018;Hughes_et_al_2018
arboriculture/gathered;cherries;1250;kg/ha;630;10.6;0;0.2;0.2;g/kg;kcal/kg;kg;USDA-2015;1000-1500-James 2011;USDA-2018;Hughes_et_al_2018
arboriculture/gathered;fig;2500;kg/ha;740;7.5;0;0.25;0.25;g/kg;kcal/kg;kg;USDA-2015;Foxhall 2007 (5000 kg/ha biennium);USDA-2018;Hughes_et_al_2018
arboriculture/gathered;fig_(dried);750;kg/ha;2490;33;0;0;0.25;g/kg;kcal/kg;kg;USDA-2015;Foxhall 2007 (5000 kg/ha biennium);USDA-2018;Hughes_et_al_2018
arboriculture/gathered;pomegranates;4000;kg/ha;830;16.7;0;0.25;0.25;g/kg;kcal/kg;kg;USDA-2015;Wolfe et al. 2009;USDA-2018;Hughes_et_al_2018
arboriculture/gathered;plum_(prunus_domesticus);4003;kg/ha;460;7;0;0.25;0.25;g/kg;kcal/kg;kg;USDA-2015;Buchner et al. 2012;USDA-2018;Hughes_et_al_2018
arboriculture/gathered;pear;3105;kg/ha;570;3.6;0;0.25;0.25;g/kg;kcal/kg;kg;USDA-2015;Rinallo & Modi 1994;USDA-2018;Hughes_et_al_2018
arboriculture/gathered;grapes;6720;kg/ha;690;8.1;0;0.25;0.25;g/kg;kcal/kg;kg;USDA-2015;Robinson 2006, 780;USDA-2018;Hughes_et_al_2018
arboriculture/gathered;almonds;2000;kg/ha;5790;211.5;0;0.35;0;g/kg;kcal/kg;kg;USDA-2015;Miarnau, Alegre and Vargas 2010;USDA-2018;Hughes_et_al_2018
arboriculture/gathered;cornus_mas_(domesticated);2250;kg/ha;500;0;0;0.35;0;g/kg;kcal/kg;kg;USDA-2015;Klimenko 2004 (20-25t/ha) - cultivated = 400-625 trees/ha;bisher_keine_infos;Hughes_et_al_2018
arboriculture/gathered;cornus_mas_(wild);990;kg/ha;500;0;0;0.35;0;g/kg;kcal/kg;kg;USDA-2015;Klimenko 2004 (1.8-4.8kg/bush);bisher_keine_infos;Hughes_et_al_2018
arboriculture/gathered;olive;6730;kg/ha;1150;17.1;0;0.25;0;g/kg;kcal/kg;kg;USDA-2015;Foxhall 2007 (340 kg/ha per biennium);USDA-2018;Hughes_et_al_2018
arboriculture/gathered;walnuts;5374;kg/ha;6540;142.9;0;0.35;0;g/kg;kcal/kg;kg;USDA-2015;Ramos et al. 1998;USDA-2018;Hughes_et_al_2018
arboriculture/gathered;chestnuts;694.2;kg/ha;2130;63.9;0;0.35;0;g/kg;kcal/kg;kg;USDA-2015;Battisti et al. 2014-11.57kg/tree avg. Italy | 60 per hectare Vossen 2000;USDA-2018;Hughes_et_al_2018
arboriculture/gathered;hazelnuts;1500;kg/ha;6280;133.3;0;0.35;0;g/kg;kcal/kg;kg;USDA-2015;2.9-3.4kg/tree full sun-Hampson et al. 1996;USDA-2018;Hughes_et_al_2018
arboriculture/gathered;neo_hazelnuts;1500;kg/ha;6600;0;0;0.35;0;g/kg;kcal/kg;kg;Souci et al. 2016: Die Zusammensetzung der Lebensmittel. 8. Auflage, Medpharm Verlag.;BiolFlor Datenbank, UFZ Halle Leipzig;bisher_keine_infos;Hughes_et_al_2018
arboriculture/gathered;quince;7500;kg/ha;570;4;0;0.3;0;g/kg;kcal/kg;kg;USDA-2015;1-115kg/tree-Ganopoulos et al. 2011|;USDA-2018;Hughes_et_al_2018
arboriculture/gathered;pistachio;2736;kg/ha;5600;201.6;0;0.35;0;g/kg;kcal/kg;kg;USDA-2015;"Ferguson et al.2005 (8.65kg/tree);Beede et al. 128 trees per acre";USDA-2018;Hughes_et_al_2018
arboriculture/gathered;wine;3675;l/ha;830;0.7;0;0;0;g/L;kcal/l;l;USDA-2015;Starr 1977;USDA-2018;Hughes_et_al_2018
arboriculture/gathered;olive_oil;186;l/ha;8840;0;0;0;0.25;g/L;kcal/l;l;USDA-2015;Foxhall 2007 (340 kg/ha per biennium);bisher_keine_infos;Hughes_et_al_2018
fodder_crops;bitter_vetch;1076;kg/ha;550;0;0;0;0.25;g/kg;kcal/kg;kg;FAO 2013;FAO 2013;bisher_keine_infos;Hughes_et_al_2018
fodder_crops;alfalfa;453;kg/ha;1408;0;0;0;0.25;g/kg;kcal/kg;kg;FAO 2013;FAO 2013;bisher_keine_infos;Hughes_et_al_2018
fodder_crops;barley;770;kg/ha;3540;0;0;0;0.25;g/kg;kcal/kg;kg;USDA-2015;Garnsey 1992;bisher_keine_infos;Hughes_et_al_2018
fodder_crops;emmer;725;kg/ha;3070;0;0;0;0.25;g/kg;kcal/kg;kg;Revedin et al. 2010;Garnsey 1992;bisher_keine_infos;Hughes_et_al_2018
fodder_crops;einkorn;700;kg/ha;3462;0;0;0;0.25;g/kg;kcal/kg;kg;Abdel-aal et al. 1995;Garnsey 1992;bisher_keine_infos;Hughes_et_al_2018
fodder_crops;millet;600;kg/ha;3780;0;0;0;0.25;g/kg;kcal/kg;kg;USDA-2015;Arnon 1972;bisher_keine_infos;Hughes_et_al_2018
fodder_crops;lentil;350;kg/ha;3520;0;0;0;0.25;g/kg;kcal/kg;kg;USDA-2015;FAO 2013;bisher_keine_infos;Hughes_et_al_2018
fodder_crops;pasture_grasses;500;kg/ha;1452;0;0;0;0.25;g/kg;kcal/kg;kg;GAEZ-Peloponnese, rain-fed, lowinput;GAEZ-Peloponnese, rain-fed, lowinput;bisher_keine_infos;Hughes_et_al_2018
fodder_crops;pasture_legumes;300;kg/ha;2151;0;0;0;0.25;g/kg;kcal/kg;kg;GAEZ-Peloponnese, rain-fed, lowinput;GAEZ-Peloponnese, rain-fed, lowinput;bisher_keine_infos;Hughes_et_al_2018
fodder_crops;forest_browse;700;kg/ha;1000;0;0;0;0.25;g/kg;kcal/kg;kg;Poli, Focardi & Tinelli 1996;Poli, Focardi & Tinelli 1996;bisher_keine_infos;Hughes_et_al_2018
fodder_crops;straw;662.5;kg/ha;1122;0;0;0;0.25;g/kg;kcal/kg;kg;NA;NA;bisher_keine_infos;Hughes_et_al_2018
others;poppy_seed;0.8;kg/ha;5250;0;0;0;0;g/kg;kcal/kg;kg;USDA-2018;Zaj?c et al. 2010;bisher_keine_infos;Hughes_et_al_2018
others;flaxseed;804;kg/ha;8210;0;0;0;0;g/kg;kcal/kg;kg;USDA-2018;Garnsey 1992;bisher_keine_infos;Hughes_et_al_2018
